<!--?xml version="1.0"?-->
<svg xmlns="http://www.w3.org/2000/svg" version="1" viewBox="0 0 24 24" enable-background="new 0 0 24 24">
    <path d="M 12 2 C 9.7901961 2 8 3.7901961 8 6 L 8 11.65625 C 6.8345392 12.731058 6 14.217159 6 16 C 6 19.32381 8.6761905 22 12 22 C 15.32381 22 18 19.32381 18 16 C 18 14.294863 17.172237 12.786302 16 11.6875 L 16 6 C 16 3.7901961 14.209804 2 12 2 z M 12 4 C 13.190196 4 14 4.8098039 14 6 L 14 7 L 11 7 L 11 13.5625 C 10.38506 14.193211 10 15.049539 10 16 C 10 17.932997 11.567003 19.5 13.5 19.5 C 13.689492 19.5 13.881174 19.466486 14.0625 19.4375 C 13.466446 19.782985 12.765628 20 12 20 C 9.7238095 20 8 18.27619 8 16 C 8 14.613725 8.6213056 13.541833 9.59375 12.8125 L 10 12.5 L 10 12 L 10 6 C 10 4.8098039 10.809804 4 12 4 z"></path>
</svg>