<!--?xml version="1.0"?-->
<svg xmlns="http://www.w3.org/2000/svg" viewBox="0 0 24 24">
    <path d="M 11.84375 2 L 11.6875 2.03125 L 5.6875 3.90625 L 5 4.125 L 5 4.875 L 5 19.5 L 5 20.28125 L 5.75 20.46875 L 11.75 21.96875 L 11.875 22 L 12 22 L 13 22 L 14 22 L 14 21 L 19 21 L 19 3 L 14 3 L 14 2 L 13 2 L 12 2 L 11.84375 2 z M 12 4.0625 L 12 19.96875 L 7 18.71875 L 7 5.625 L 12 4.0625 z M 10.34375 11 C 9.9753763 11 9.65625 11.447715 9.65625 12 C 9.65625 12.552285 9.9753763 13 10.34375 13 C 10.712124 13 11 12.552285 11 12 C 11 11.447715 10.712124 11 10.34375 11 z"></path>
</svg>